#258 - Lodz

owner = A89
controller = A89
add_core = A89
culture = arbarani
religion = regent_court

hre = yes

base_tax = 4
base_production = 4
base_manpower = 3

trade_goods = grain

capital = ""

is_city = yes






