#530 - Vernat

owner = F19
controller = F19
add_core = F19
culture = bahari
religion = bulwari_sun_cult

base_tax = 4
base_production = 4
base_manpower = 2

trade_goods = glass

capital = ""

is_city = yes










