# No previous file for Bali
owner = F31
controller = F31
add_core = F31
culture = surani
religion = bulwari_sun_cult

hre = no

base_tax = 5
base_production = 4
base_manpower = 2

trade_goods = incense
center_of_trade = 1

capital = ""

is_city = yes












add_permanent_province_modifier = {
	name = elven_minority_integrated_large
	duration = -1
}