namespace = adventurerspawnables

#Sornic Sons - Bloodgroves
country_event = {
	id = adventurerspawnables.1
	title = adventurerspawnables.1.t
	desc = adventurerspawnables.1.d
	picture = CARIBBEAN_PIRATE_FORT_eventPicture
	goto = spawn_province
	
	fire_only_once = yes
	
	trigger = {
		owns = 88 #Sornaire
		has_global_flag = new_world_discovered
		is_year = 1500
		bloodgroves_region = {
			is_empty = yes
			
			#has_discovered = ROOT
			
			has_empty_adjacent_province = yes
		}
	}
	
	mean_time_to_happen = {
		months = 300
		
		modifier = {
			factor = 0.1
			A09 = { exists = no }
		}
		
		modifier = {
			factor = 0.5
			any_country = {
				capital_scope = { continent = europe }
				bloodgroves_region = { has_discovered = ROOT }
			}
		}
		
		modifier = {
			factor = 0.5
			ai = no
		}
	}
	
	immediate = {
		hidden_effect = {
			random_province = {
				limit = {
					region = bloodgroves_region
					is_empty = yes
					
					has_empty_adjacent_province = yes
					
				}
				
				save_event_target_as = spawn_province
			}
			
			random_province = {
				limit = {
					region = bloodgroves_region
					is_empty = yes
					
					has_empty_adjacent_province = yes
					
					has_port = yes
				}
				
				save_event_target_as = spawn_province
			}		
		}
	}
	
	option = {
		name = adventurerspawnables.1.a
		
		event_target:spawn_province = {
			create_colony = 1000
		}
		
		event_target:spawn_province = {
			cede_province = H40
		}
		
		hidden_effect = {
			H40 = {
				country_event = {
					id = anb_miscevents.8
					days = 30
				}
			}
		}
		
		adventurer_spawnable_starting_bonus = { tag = H40 }
	}
	
	option = { # play as the pirates
		name = adventurerspawnables.1.b
		trigger = {
			ai = no
		}
		event_target:spawn_province = {
			create_colony = 1000
		}
		
		event_target:spawn_province = {
			cede_province = H40
		}
		
		hidden_effect = {
			H40 = {
				country_event = { 
					id = anb_miscevents.8
					days = 30
				}
			}
		}
		
		adventurer_spawnable_starting_bonus = { tag = H40 }
		switch_tag = H40
	}
	

}

#Onyx Legion - Reaper's Coast
country_event = {
	id = adventurerspawnables.2
	title = adventurerspawnables.2.t
	desc = adventurerspawnables.2.d
	picture = CARIBBEAN_PIRATE_FORT_eventPicture
	goto = spawn_province
	
	fire_only_once = yes
	
	trigger = {
		owns = 441 #Arca Corvur
		has_global_flag = new_world_discovered
		is_year = 1500
		reapers_coast_region = {
			is_empty = yes
			
			#has_discovered = ROOT
			
			has_empty_adjacent_province = yes
		}
	}
	
	mean_time_to_happen = {
		months = 300
		
		modifier = {
			factor = 0.5
			any_country = {
				capital_scope = { continent = europe }
				reapers_coast_region = { has_discovered = ROOT }
			}
		}
		
		modifier = {
			factor = 0.5
			ai = no
		}
	}
	
	immediate = {
		hidden_effect = {
			random_province = {
				limit = {
					region = reapers_coast_region
					is_empty = yes
					
					has_empty_adjacent_province = yes
					
				}
				
				save_event_target_as = spawn_province
			}
			
			random_province = {
				limit = {
					region = reapers_coast_region
					is_empty = yes
					
					has_empty_adjacent_province = yes
					
					has_port = yes
				}
				
				save_event_target_as = spawn_province
			}

			set_global_flag = remove_merc_onyx_legion
		}

	}
	
	option = {
		name = adventurerspawnables.1.a
		
		event_target:spawn_province = {
			create_colony = 1000
		}
		
		event_target:spawn_province = {
			cede_province = H42
		}
	
		hidden_effect = {
			H42 = {
				country_event = {
					id = anb_miscevents.8
					days = 30
				}
			}
		}
		
		adventurer_spawnable_starting_bonus = { tag = H42 }
	}
	
	option = { # play as the pirates
		name = adventurerspawnables.1.b
		trigger = {
			ai = no
		}
		event_target:spawn_province = {
			create_colony = 1000
		}
		
		event_target:spawn_province = {
			cede_province = H42
		}
		
		hidden_effect = {
			H42 = {
				country_event = { 
					id = anb_miscevents.8
					days = 30
				}
			}
		}
		
		adventurer_spawnable_starting_bonus = { tag = H42 }
		switch_tag = H42
	}
}


#Shining Circle - Ynn west
country_event = {
	id = adventurerspawnables.3
	title = adventurerspawnables.3.t
	desc = adventurerspawnables.3.d
	picture = CARIBBEAN_PIRATE_FORT_eventPicture
	goto = spawn_province
	
	fire_only_once = yes
	
	trigger = {
		owns = 234 #Damescrown
		has_global_flag = new_world_discovered
		current_age = age_of_reformation
		OR = {
			epednan_expanse_region = {
				is_empty = yes
				
				#has_discovered = ROOT
				
				has_empty_adjacent_province = yes
			}
			sarda_region = {
				is_empty = yes
				
				#has_discovered = ROOT
				
				has_empty_adjacent_province = yes
			}
		}
	}
	
	mean_time_to_happen = {
		months = 300
		
		modifier = {
			factor = 0.5
			any_country = {
				capital_scope = { continent = europe }
				sarda_region = { has_discovered = ROOT }
			}
		}
		
		modifier = {
			factor = 0.5
			ai = no
		}
	}
	
	immediate = {
		hidden_effect = {
			random_province = {
				limit = {
					OR = {
						region = epednan_expanse_region
						region = sarda_region
					}
					is_empty = yes
					
					has_empty_adjacent_province = yes
					
				}
				
				save_event_target_as = spawn_province
			}
		}
		
	}
	
	option = {
		name = adventurerspawnables.1.a 
		
		event_target:spawn_province = {
			create_colony = 1000
		}
		
		event_target:spawn_province = {
			cede_province = H44
		}
		
		hidden_effect = {
			H44 = {
				country_event = { 
					id = anb_miscevents.8
					days = 30
				}
			}
		}
		
		adventurer_spawnable_starting_bonus = { tag = H44 }
	}
	
	option = { # play as the pirates
		name = adventurerspawnables.1.b
		trigger = {
			ai = no
		}
		event_target:spawn_province = {
			create_colony = 1000
		}
		
		event_target:spawn_province = {
			cede_province = H44
		}
		
		hidden_effect = {
			H44 = {
				country_event = { 
					id = anb_miscevents.8
					days = 30
				}
			}
		}
		
		adventurer_spawnable_starting_bonus = { tag = H44 }
		switch_tag = H44
	}
}



#Istralorian Crusaders - Ynn north
country_event = {
	id = adventurerspawnables.4
	title = adventurerspawnables.4.t
	desc = adventurerspawnables.4.d
	picture = CARIBBEAN_PIRATE_FORT_eventPicture
	goto = spawn_province
	
	fire_only_once = yes
	
	trigger = {
		owns = 277 #Istralore
		religion = corinite
		has_global_flag = new_world_discovered
		current_age = age_of_reformation
		is_religion_enabled = corinite
		rzenta_region = {
			is_empty = yes
			
			#has_discovered = ROOT
			
			has_empty_adjacent_province = yes
		}
	}
	
	mean_time_to_happen = {
		months = 300
		
		modifier = {
			factor = 0.5
			any_country = {
				capital_scope = { continent = europe }
				veykoda_region = { has_discovered = ROOT }
			}
		}
		modifier = {
			factor = 0.5
			A45 = {
				NOT = { religion = corinite }
			}
		}
		
		modifier = {
			factor = 0.5
			ai = no
		}
	}
	
	immediate = {
		hidden_effect = {
			random_province = {
				limit = {
					region = rzenta_region
					is_empty = yes
					
					has_empty_adjacent_province = yes
					
				}
				
				save_event_target_as = spawn_province
			}
		}
		
	}
	
	option = {
		name = adventurerspawnables.1.a 
		
		event_target:spawn_province = {
			create_colony = 1000
		}
		
		event_target:spawn_province = {
			cede_province = H46
		}
		
		hidden_effect = {
			H46 = {
				country_event = { 
					id = anb_miscevents.8
					days = 30
				}
			}
		}
		
		adventurer_spawnable_starting_bonus = { tag = H46 }
	}
	
	option = { # play as the pirates
		name = adventurerspawnables.1.b
		trigger = {
			ai = no
		}
		event_target:spawn_province = {
			create_colony = 1000
		}
		
		event_target:spawn_province = {
			cede_province = H46
		}
		
		hidden_effect = {
			H46 = {
				country_event = { 
					id = anb_miscevents.8
					days = 30
				}
			}
		}
		
		adventurer_spawnable_starting_bonus = { tag = H46 }
		switch_tag = H46
	}
}

#Menibor Free Company - Ynn west
country_event = {
	id = adventurerspawnables.5
	title = adventurerspawnables.5.t
	desc = adventurerspawnables.5.d
	picture = CARIBBEAN_PIRATE_FORT_eventPicture
	goto = spawn_province
	
	fire_only_once = yes
	
	trigger = {	
		owns = 569 #Menibor
		has_global_flag = new_world_discovered
		current_age = age_of_reformation
		is_religion_enabled = corinite
		OR = {
			epednan_expanse_region = {
				is_empty = yes
				
				#has_discovered = ROOT
				
				has_empty_adjacent_province = yes
			}
			sarda_region = {
				is_empty = yes
				
				#has_discovered = ROOT
				
				has_empty_adjacent_province = yes
			}
		}
	}
	
	mean_time_to_happen = {
		months = 300
		
		modifier = {
			factor = 0.5
			any_country = {
				capital_scope = { continent = europe }
				sarda_region = { has_discovered = ROOT }
			}
		}
		
		modifier = {
			factor = 0.5
			ai = no
		}
	}
	
	immediate = {
		hidden_effect = {
			random_province = {
				limit = {
					region = epednan_expanse_region
					is_empty = yes
					has_terrain = desert	#spawns ownly in decent provinces bordering mountains
					NOT = { province_id = 1846 }
					NOT = { province_id = 1849 }
					NOT = { province_id = 1861 }
					NOT = { province_id = 1879 }
					
					has_empty_adjacent_province = yes
					
				}
					
				save_event_target_as = spawn_province
			}
		
			random_province = {
				limit = {
					area = boruleed_area
					is_empty = yes
					has_terrain = desert
					NOT = { province_id = 1879 }
					
					has_empty_adjacent_province = yes
					
				}

				save_event_target_as = spawn_province
			}
		
			random_province = {
				limit = {
					province_id = 1864
					is_empty = yes
					
					has_empty_adjacent_province = yes
					
				}
					
				save_event_target_as = spawn_province
			}

			set_global_flag = remove_merc_menibor_free_company
		}
		
	}
	
	option = {
		name = adventurerspawnables.1.a 
		
		event_target:spawn_province = {
			create_colony = 1000
		}
		
		event_target:spawn_province = {
			cede_province = H48
		}
		
		hidden_effect = {
			H48 = {
				country_event = { 
					id = anb_miscevents.8
					days = 30
				}
			}
		}
		
		adventurer_spawnable_starting_bonus = { tag = H48 }
	}
	
	option = { # play as the pirates
		name = adventurerspawnables.1.b
		trigger = {
			ai = no
		}
		event_target:spawn_province = {
			create_colony = 1000
		}
		
		event_target:spawn_province = {
			cede_province = H48
		}
		
		hidden_effect = {
			H48 = {
				country_event = { 
					id = anb_miscevents.8
					days = 30
				}
			}
		}
		
		adventurer_spawnable_starting_bonus = { tag = H48 }
		switch_tag = H48
	}
}


#Varbuks Freemen - Forest of the Cursed Ones
country_event = {
	id = adventurerspawnables.6
	title = adventurerspawnables.6.t
	desc = adventurerspawnables.6.d
	picture = CARIBBEAN_PIRATE_FORT_eventPicture
	goto = spawn_province
	
	fire_only_once = yes
	
	trigger = {
		num_of_provinces_owned_or_owned_by_non_sovereign_subjects_with = {
			value = 3
			has_half_orcish_minority_trigger = yes
			OR = {
				continent = north_america
				continent = south_america
			}
		}
		is_subject = no
		has_global_flag = new_world_discovered
		is_year = 1550
		forest_of_the_cursed_ones_region = {
			is_empty = yes
			
			#has_discovered = ROOT
			
			has_empty_adjacent_province = yes
		}
		OR = {
			north_america = {
				trade_goods = slaves
			}
			south_america = {
				trade_goods = slaves
			}
		}
	}
	
	mean_time_to_happen = {
		months = 300
		
		modifier = {
			factor = 0.5
			any_country = {
				capital_scope = { continent = europe }
				sarda_region = { has_discovered = ROOT }
			}
		}
		
		modifier = {
			factor = 0.5
			ai = no
		}
	}
	
	immediate = {
		hidden_effect = {
			if = {
				limit = { is_religion_enabled = corinite }
				H50 = { change_religion = corinite }
			}
			random_province = {
				limit = {
					region = forest_of_the_cursed_ones_region
					is_empty = yes
					
					has_empty_adjacent_province = yes
					
				}
				
				save_event_target_as = spawn_province
			}
			random_province = {
				limit = {
					area = tyorbaland_area
					is_empty = yes
					
					has_empty_adjacent_province = yes
					
				}
				
				save_event_target_as = spawn_province
			}
		}
	}
	
	option = {
		name = adventurerspawnables.1.a 
		
		event_target:spawn_province = {
			create_colony = 1000
		}
		
		event_target:spawn_province = {
			cede_province = H50
		}
		
		hidden_effect = {
			H50 = {
				country_event = { 
					id = anb_miscevents.8
					days = 30
				}
				define_ruler = {
					name = "Varbuk"
					adm = 4
					dip = 3
					mil = 5
					age = 37
					claim = 95
					fixed = yes
				}
			}
		}
		
		adventurer_spawnable_starting_bonus = { tag = H50 }
	}
	
	option = { # play as the pirates
		name = adventurerspawnables.1.b
		trigger = {
			ai = no
		}
		event_target:spawn_province = {
			create_colony = 1000
		}
		
		event_target:spawn_province = {
			cede_province = H50
		}
		
		hidden_effect = {
			H50 = {
				country_event = { 
					id = anb_miscevents.8
					days = 30
				}
				define_ruler = {
					name = "Varbuk"
					adm = 4
					dip = 3
					mil = 5
					age = 37
					claim = 95
					fixed = yes
				}
			}
		}
		
		adventurer_spawnable_starting_bonus = { tag = H50 }
		switch_tag = H50
	}
}


#House of Pelodir - Ynn (they should get events to absorb ynnic countries) west
country_event = {
	id = adventurerspawnables.7
	title = adventurerspawnables.7.t
	desc = adventurerspawnables.7.d
	picture = CARIBBEAN_PIRATE_FORT_eventPicture
	goto = spawn_province
	
	fire_only_once = yes
	
	trigger = {
		owns = 350 #Silent Repose
		has_global_flag = new_world_discovered
		current_age = age_of_reformation
		OR = {
			epednan_expanse_region = {
				is_empty = yes
				
				#has_discovered = ROOT
				
				has_empty_adjacent_province = yes
			}
		}
	}
	
	mean_time_to_happen = {
		months = 300
		
		modifier = {
			factor = 0.5
			any_country = {
				capital_scope = { continent = europe }
				sarda_region = { has_discovered = ROOT }
			}
		}
		
		modifier = {
			factor = 0.5
			ai = no
		}
	}
	
	immediate = {
		hidden_effect = {
			random_province = {
				limit = {
					region = epednan_expanse_region
					is_empty = yes
					
					has_empty_adjacent_province = yes

				}

				save_event_target_as = spawn_province
			}
		
			random_province = {
				limit = {
					area = paihubi_area
					is_empty = yes
					
					has_empty_adjacent_province = yes
					
				}

				save_event_target_as = spawn_province
			}
		}
	}
	
	option = {
		name = adventurerspawnables.1.a 
		
		event_target:spawn_province = {
			create_colony = 1000
		}
		
		event_target:spawn_province = {
			cede_province = H52
		}
		
		hidden_effect = {
			H52 = {
				country_event = { 
					id = anb_miscevents.8
					days = 30
				}
				define_ruler = {
					name = "Pelodir the Great"
					adm = 6
					dip = 3
					mil = 3
					age = 350
					claim = 95
					fixed = yes
				}
			}
		}
		
		adventurer_spawnable_starting_bonus = { tag = H52 }
	}
	
	option = { # play as the pirates
		name = adventurerspawnables.1.b
		trigger = {
			ai = no
		}
		event_target:spawn_province = {
			create_colony = 1000
		}
		
		event_target:spawn_province = {
			cede_province = H52
		}
		
		hidden_effect = {
			H52 = {
				country_event = { 
					id = anb_miscevents.8
					days = 30
				}
				define_ruler = {
					name = "Pelodir the Great"
					adm = 6
					dip = 3
					mil = 3
					age = 350
					claim = 95
					fixed = yes
				}
			}
		}
		
		adventurer_spawnable_starting_bonus = { tag = H52 }
		switch_tag = H52
	}
}

#Tipney Pioneers - Ynn east
country_event = {
	id = adventurerspawnables.8
	title = adventurerspawnables.8.t
	desc = adventurerspawnables.8.d
	picture = CARIBBEAN_PIRATE_FORT_eventPicture
	goto = spawn_province
	
	fire_only_once = yes
	
	trigger = {
		owns = 135 #Tipney
		has_global_flag = new_world_discovered
		has_global_flag = halfling_revolt 
		veykoda_region = {
			is_empty = yes
			
			#has_discovered = ROOT
			
			has_empty_adjacent_province = yes
		}
	}
	
	mean_time_to_happen = {
		months = 300
		
		modifier = {
			factor = 0.5
			any_country = {
				capital_scope = { continent = europe }
				veykoda_region = { has_discovered = ROOT }
			}
		}
		
		modifier = {
			factor = 0.5
			ai = no
		}
	}
	
	immediate = {
		hidden_effect = {
			random_province = {
				limit = {	#can spawn in any veykodan farmland
					OR = {
						region = veykoda_region
						province_id = 1155
					}
					NOT = { area = corinsfield_area }
					NOT = { province_id = 1162 }	#too close to Balgabar
					is_empty = yes
					has_terrain = farmlands
					
					has_empty_adjacent_province = yes
					
				}
				
				save_event_target_as = spawn_province
			}
			

			random_province = {	#prioritizes Aryamer area
				limit = {
					area = aryamer_area
					is_empty = yes
					
					has_empty_adjacent_province = yes
				}
				
				save_event_target_as = spawn_province
			}
		}
	}
	
	option = {
		name = adventurerspawnables.1.a 
		
		event_target:spawn_province = {
			create_colony = 1000
		}
		
		event_target:spawn_province = {
			cede_province = H54
		}
		
		hidden_effect = {
			H54 = {
				country_event = { 
					id = anb_miscevents.8
					days = 30
				}
			}
		}
		
		adventurer_spawnable_starting_bonus = { tag = H54 }
	}
	
	option = { # play as the pirates
		name = adventurerspawnables.1.b
		trigger = {
			ai = no
		}
		event_target:spawn_province = {
			create_colony = 1000
		}
		
		event_target:spawn_province = {
			cede_province = H54
		}
		
		hidden_effect = {
			H54 = {
				country_event = { 
					id = anb_miscevents.8
					days = 30
				}
			}
		}
		
		adventurer_spawnable_starting_bonus = { tag = H54 }
		switch_tag = H54
	}
}


#Havoral Band - Ynn east
country_event = {
	id = adventurerspawnables.9
	title = adventurerspawnables.9.t
	desc = adventurerspawnables.9.d
	picture = CARIBBEAN_PIRATE_FORT_eventPicture
	goto = spawn_province
	
	fire_only_once = yes
	
	trigger = {
		owns = 909 #Havorton
		has_global_flag = new_world_discovered
		current_age = age_of_reformation
		veykoda_region = {
			is_empty = yes
			
			#has_discovered = ROOT
			
			has_empty_adjacent_province = yes
		}
	}
	
	mean_time_to_happen = {
		months = 300
		
		modifier = {
			factor = 0.5
			any_country = {
				capital_scope = { continent = europe }
				veykoda_region = { has_discovered = ROOT }
			}
		}
		
		modifier = {
			factor = 0.5
			ai = no
		}
	}
	
	immediate = {
		hidden_effect = {
			random_province = {
				limit = {
					region = veykoda_region
					is_empty = yes
					
					has_empty_adjacent_province = yes
					
				}
				
				save_event_target_as = spawn_province
			}

			set_global_flag = remove_merc_havoral_band
		}
		
	}
	
	option = {
		name = adventurerspawnables.1.a 
		
		event_target:spawn_province = {
			create_colony = 1000
		}
		
		event_target:spawn_province = {
			cede_province = H56
		}
		
		hidden_effect = {
			H56 = {
				country_event = { 
					id = anb_miscevents.8
					days = 30
				}
			}
		}
		
		adventurer_spawnable_starting_bonus = { tag = H56 }
	}
	
	option = { # play as the pirates
		name = adventurerspawnables.1.b
		trigger = {
			ai = no
		}
		event_target:spawn_province = {
			create_colony = 1000
		}
		
		event_target:spawn_province = {
			cede_province = H56
		}
		
		hidden_effect = {
			H56 = {
				country_event = { 
					id = anb_miscevents.8
					days = 30
				}
			}
		}
		
		adventurer_spawnable_starting_bonus = { tag = H56 }
		switch_tag = H56
	}
}


#Chipped Tooth Company - Ynn west
country_event = {
	id = adventurerspawnables.10
	title = adventurerspawnables.10.t
	desc = adventurerspawnables.10.d
	picture = CARIBBEAN_PIRATE_FORT_eventPicture
	goto = spawn_province
	
	fire_only_once = yes
	
	trigger = {
		owns = 8 #Anbenncost
		has_global_flag = new_world_discovered
		current_age = age_of_reformation
		is_religion_enabled = corinite
		OR = {
			epednan_expanse_region = {
				is_empty = yes
				
				#has_discovered = ROOT
				
				has_empty_adjacent_province = yes
			}
			sarda_region = {
				is_empty = yes
				
				#has_discovered = ROOT
				
				has_empty_adjacent_province = yes
			}
		}
		OR = {
			north_america = {
				trade_goods = slaves
			}
			south_america = {
				trade_goods = slaves
			}
		}
	}
	
	mean_time_to_happen = {
		months = 300
		
		modifier = {
			factor = 0.5
			any_country = {
				capital_scope = { continent = europe }
				veykoda_region = { has_discovered = ROOT }
			}
		}
		
		modifier = {
			factor = 0.5
			ai = no
		}
	}
	
	immediate = {
		hidden_effect = {
			H58 = { change_religion = great_dookan }
			random_province = {
				limit = {
					OR = {
						region = epednan_expanse_region
						region = sarda_region
					}
					is_empty = yes
					
					has_empty_adjacent_province = yes
					
				}
				
				save_event_target_as = spawn_province
			}
		}
		set_global_flag = remove_merc_chipped_tooth_company
		
	}
	
	option = {
		name = adventurerspawnables.1.a 
		
		event_target:spawn_province = {
			create_colony = 1000
		}
		
		event_target:spawn_province = {
			cede_province = H58
		}
		
		hidden_effect = {
			H58 = {
				country_event = { 
					id = anb_miscevents.8
					days = 30
				}
			}
		}
		
		adventurer_spawnable_starting_bonus = { tag = H58 }
	}
	
	option = { # play as the pirates
		name = adventurerspawnables.1.b
		trigger = {
			ai = no
		}
		event_target:spawn_province = {
			create_colony = 1000
		}
		
		event_target:spawn_province = {
			cede_province = H58
		}
		
		hidden_effect = {
			H58 = {
				country_event = { 
					id = anb_miscevents.8
					days = 30
				}
			}
		}
		
		adventurer_spawnable_starting_bonus = { tag = H58 }
		switch_tag = H58
	}
}

#Plumwall Expedition - Ynn west
country_event = {
	id = adventurerspawnables.11
	title = adventurerspawnables.11.t
	desc = adventurerspawnables.11.d
	picture = CARIBBEAN_PIRATE_FORT_eventPicture
	goto = spawn_province
	
	fire_only_once = yes
	
	trigger = {
		owns = 281 #Plumwall
		has_global_flag = new_world_discovered
		current_age = age_of_reformation
		is_year = 1510
		OR = {
			epednan_expanse_region = {
				is_empty = yes
				
				#has_discovered = ROOT
				
				has_empty_adjacent_province = yes
			}
			sarda_region = {
				is_empty = yes
				
				#has_discovered = ROOT
				
				has_empty_adjacent_province = yes
			}
		}
	}
	
	mean_time_to_happen = {
		months = 300
		
		modifier = {
			factor = 0.5
			any_country = {
				capital_scope = { continent = europe }
				sarda_region = { has_discovered = ROOT }
			}
		}
		
		modifier = {
			factor = 0.5
			ai = no
		}
	}
	
	immediate = {
		hidden_effect = {
			random_province = {
				limit = {
					OR = {
						region = epednan_expanse_region
						region = sarda_region
					}
					is_empty = yes
					
					has_empty_adjacent_province = yes
					
				}
				
				save_event_target_as = spawn_province
			}
			
			random_province = {
				limit = {
					province_id = 1882
					is_empty = yes
					
					has_empty_adjacent_province = yes
					
				}
				
				save_event_target_as = spawn_province
			}
		}
		
	}
	
	option = {
		name = adventurerspawnables.1.a 
		
		event_target:spawn_province = {
			create_colony = 1000
		}
		
		event_target:spawn_province = {
			cede_province = H60
		}
		
		hidden_effect = {
			H60 = {
				country_event = { 
					id = anb_miscevents.8
					days = 30
				}
			}
		}
		
		adventurer_spawnable_starting_bonus = { tag = H60 }
	}
	
	option = { # play as the pirates
		name = adventurerspawnables.1.b
		trigger = {
			ai = no
		}
		event_target:spawn_province = {
			create_colony = 1000
		}
		
		event_target:spawn_province = {
			cede_province = H60
		}
		
		hidden_effect = {
			H60 = {
				country_event = { 
					id = anb_miscevents.8
					days = 30
				}
			}
		}
		
		adventurer_spawnable_starting_bonus = { tag = H60 }
		switch_tag = H60
	}
}

#Brigade Magnificent - east effelai
country_event = {
	id = adventurerspawnables.12
	title = adventurerspawnables.12.t
	desc = adventurerspawnables.12.d
	picture = CARIBBEAN_PIRATE_FORT_eventPicture
	goto = spawn_province
	
	fire_only_once = yes
	
	trigger = {
		owns = 244 #Arca Dhanaenn
		religion = corinite
		has_global_flag = new_world_discovered
		current_age = age_of_reformation
		is_religion_enabled = corinite
		east_effelai_region = {
			is_empty = yes
			
			#has_discovered = ROOT
			
			has_empty_adjacent_province = yes
		}
	}
	
	mean_time_to_happen = {
		months = 300
		
		modifier = {
			factor = 0.5
			any_country = {
				capital_scope = { continent = europe }
				east_effelai_region = { has_discovered = ROOT }
			}
		}
		
		modifier = {
			factor = 0.5
			ai = no
		}
	}
	
	immediate = {
		hidden_effect = {
			random_province = {
				limit = {
					region = east_effelai_region
					is_empty = yes
					
					has_empty_adjacent_province = yes
					
				}
				
				save_event_target_as = spawn_province
			}
			
			random_province = {
				limit = {
					region = east_effelai_region
					is_empty = yes
					
					has_empty_adjacent_province = yes
					
					has_port = yes
				}
				
				save_event_target_as = spawn_province
			}		
		}

	}
	
	option = {
		name = adventurerspawnables.1.a 
		
		event_target:spawn_province = {
			create_colony = 1000
		}
		
		event_target:spawn_province = {
			cede_province = H62
		}
		
		hidden_effect = {
			H62 = {
				country_event = { 
					id = anb_miscevents.8
					days = 30
				}
			}
		}
		
		adventurer_spawnable_starting_bonus = { tag = H62 }
	}
	
	option = { # play as the pirates
		name = adventurerspawnables.1.b
		trigger = {
			ai = no
		}
		event_target:spawn_province = {
			create_colony = 1000
		}
		
		event_target:spawn_province = {
			cede_province = H62
		}
		
		hidden_effect = {
			H62 = {
				country_event = { 
					id = anb_miscevents.8
					days = 30
				}
			}
		}
		
		adventurer_spawnable_starting_bonus = { tag = H62 }
		switch_tag = H62
	}
}

#Bardswood Band - Ynn west
country_event = {
	id = adventurerspawnables.13
	title = adventurerspawnables.13.t
	desc = adventurerspawnables.13.d
	picture = CARIBBEAN_PIRATE_FORT_eventPicture
	goto = spawn_province
	
	fire_only_once = yes
	
	trigger = {
		owns = 417 #TELLUM!
		has_global_flag = new_world_discovered
		current_age = age_of_reformation
		epednan_expanse_region = {
			is_empty = yes
			
			#has_discovered = ROOT
			
			has_empty_adjacent_province = yes
		}
	}
	
	mean_time_to_happen = {
		months = 300
		
		modifier = {
			factor = 0.5
			any_country = {
				capital_scope = { continent = europe }
				epednan_expanse_region = { has_discovered = ROOT }
			}
		}
		
		modifier = {
			factor = 0.5
			ai = no
		}
	}
	
	immediate = {
		hidden_effect = {
			random_province = {
				limit = {
					region = epednan_expanse_region
					is_empty = yes
					NOT = { area = paihubi_area }	#avoids spawning on Pelodaire's turf
					NOT = { area = boruleed_area }	#avoids spawning too far south/close to the Trollsbay
					NOT = { area = ciodsibh_area }
					has_terrain = steppe	#for extra cowboy theme, also so they don't get spawned in the desert outright
					
					has_empty_adjacent_province = yes
					
				}
				
				save_event_target_as = spawn_province
			}
		}
		
	}
	
	option = {
		name = adventurerspawnables.1.a 
		
		event_target:spawn_province = {
			create_colony = 1000
		}
		
		event_target:spawn_province = {
			cede_province = H64
		}
		
		hidden_effect = {
			H64 = {
				country_event = { 
					id = anb_miscevents.8
					days = 30
				}
			}
		}
		
		adventurer_spawnable_starting_bonus = { tag = H64 }
	}
	
	option = { # play as the pirates
		name = adventurerspawnables.1.b
		trigger = {
			ai = no
		}
		event_target:spawn_province = {
			create_colony = 1000
		}
		
		event_target:spawn_province = {
			cede_province = H64
		}
		
		hidden_effect = {
			H64 = {
				country_event = { 
					id = anb_miscevents.8
					days = 30
				}
			}
		}
		
		adventurer_spawnable_starting_bonus = { tag = H64 }
		switch_tag = H64
	}
}

#Jaherian Exemplars - east effelai
country_event = {
	id = adventurerspawnables.14
	title = adventurerspawnables.14.t
	desc = adventurerspawnables.14.d
	picture = CARIBBEAN_PIRATE_FORT_eventPicture
	goto = spawn_province
	
	fire_only_once = yes
	
	trigger = {
		owns = 496 #Elizna
		has_global_flag = new_world_discovered
		
		NOT = { exists = H66 }
		NOT = { exists = H67 }
		primary_culture = sun_elf
		religion = bulwari_sun_cult
		is_year = 1500
		
		
		dry_coast_region = {
			is_empty = yes
			
			has_empty_adjacent_province = yes
		}
	}
	
	mean_time_to_happen = {
		months = 300
		
		modifier = {
			factor = 0.01
			
			is_year = 1520
		}
		
		modifier = {
			factor = 0.5
			ai = no
		}
	}
	
	immediate = {
		hidden_effect = {
			random_province = {
				limit = {
					region = dry_coast_region
					is_empty = yes
					
					has_empty_adjacent_province = yes
					
				}
				
				save_event_target_as = spawn_province
			}
			
			random_province = {
				limit = {
					region = dry_coast_region
					is_empty = yes
					
					has_empty_adjacent_province = yes
					
					has_port = yes
				}
				
				save_event_target_as = spawn_province
			}
			if = {
				limit = {
					2302 = {
						is_empty = yes
						
						has_empty_adjacent_province = yes
					}
				}
				2302 = {
					save_event_target_as = spawn_province
				}
			}
			if = {
				limit = {
					ai = no
					2333 = {
						is_empty = yes
						
						has_empty_adjacent_province = yes
					}
				}
				2333 = {
					save_event_target_as = spawn_province
				}
			}
		}
	}
	
	option = {
		name = adventurerspawnables.1.a 
		
		if = {
			limit = { NOT = { exists = H66 } }
			event_target:spawn_province = {
				create_colony = 1000
			}
			
			event_target:spawn_province = {
				cede_province = H66
			}
			hidden_effect = {
				H66 = {
					country_event = { 
						id = anb_miscevents.8
						days = 30
					}
					define_ruler = {
					name = "Ecaris"
					dynasty = "Ecarizuir"
					adm = 2
					dip = 4
					mil = 5
					age = 99
					claim = 95
					fixed = yes
					culture = sun_elf
					}
					add_ruler_personality = immortal_personality
					add_ruler_personality = mage_personality 
					set_ruler_flag = evocation_1
					set_ruler_flag = evocation_2
					set_ruler_flag = evocation_3
					set_ruler_flag = abjuration_1
					set_ruler_flag = abjuration_2
				}
			}
		}
		
		adventurer_spawnable_starting_bonus = { tag = H66 }
	}
	
	option = { # play as the pirates
		name = adventurerspawnables.1.b
		trigger = {
			ai = no
		}
		if = {
			limit = { NOT = { exists = H66 } }
			event_target:spawn_province = {
				create_colony = 1000
			}
			
			event_target:spawn_province = {
				cede_province = H66
			}
			hidden_effect = {
				H66 = {
					country_event = { 
						id = anb_miscevents.8
						days = 30
					}
					define_ruler = {
					name = "Ecaris"
					dynasty = "Ecarizuir"
					adm = 2
					dip = 4
					mil = 5
					age = 99
					claim = 95
					fixed = yes
					culture = sun_elf
					}
					add_ruler_personality = immortal_personality
					add_ruler_personality = mage_personality 
					set_ruler_flag = evocation_1
					set_ruler_flag = evocation_2
					set_ruler_flag = evocation_3
					set_ruler_flag = abjuration_1
					set_ruler_flag = abjuration_2
				}
			}
		}
		
		adventurer_spawnable_starting_bonus = { tag = H66 }
		switch_tag = H66
	}
}
