namespace = eordellon

#Funereal Season Honoring
country_event = {
	id = eordellon.1
	title = eordellon.1.t
	desc = eordellon.1.d
	picture = KING_SICK_IN_BED_eventPicture
	
	is_triggered_only = yes
	
	trigger = {
		OR = {
			religion = eordellon
			religion = spring_court
			religion = summer_court
			religion = autumn_court
			religion = spring_court
		}
		capital_scope = { superregion = eordand_superregion }
		ruler_age = 16 #so it doesn't trigger for regents
	}
	
	option = { #Spring
		name = eordellon.1.a
		trigger = {
			OR = {
				religion = eordellon
				accepted_culture = selphereg
				primary_culture = selphereg
			}
		}
		ai_chance = {
			factor = 100
			
			modifier = {
				factor = 10
				religion = spring_court
			}
		}
		add_adm_power = 10
		add_piety = 0.10
	}
	option = { #Summer
		name = eordellon.1.b
		trigger = {
			OR = {
				religion = eordellon
				accepted_culture = caamas
				primary_culture = caamas
			}
		}
		ai_chance = {
			factor = 100
			
			modifier = {
				factor = 10
				religion = summer_court
			}
		}
		add_dip_power = 10
		add_piety = 0.10
	}
	option = { #Autumn
		name = eordellon.1.c
		trigger = {
			OR = {
				religion = eordellon
				accepted_culture = tuathak
				primary_culture = tuathak
			}
		}
		ai_chance = {
			factor = 100
			
			modifier = {
				factor = 10
				religion = tuathak_court
			}
		}
		add_mil_power = 10
		add_piety = -0.10
	}
	option = { #Winter
		name = eordellon.1.dd
		trigger = {
			OR = {
				religion = eordellon
				accepted_culture = snecboth
				primary_culture = snecboth
			}
		}
		ai_chance = {
			factor = 100
			
			modifier = {
				factor = 10
				religion = winter_court
			}
		}
		increase_legitimacy_small_effect = yes
		add_piety = -0.10
	}
	option = { #Precursor
		name = eordellon.1.e
		ai_chance = {
			factor = 100
			
			modifier = {
				factor = 2
				religion = eordellon
			}
		}
		add_prestige = 5
		add_years_of_income = -0.05
	}
	
}